<?xml version="1.0" encoding="UTF-8" standalone="no"?>
<!-- Created with Inkscape (http://www.inkscape.org/) -->

<svg
   xmlns:dc="http://purl.org/dc/elements/1.1/"
   xmlns:cc="http://creativecommons.org/ns#"
   xmlns:rdf="http://www.w3.org/1999/02/22-rdf-syntax-ns#"
   xmlns:svg="http://www.w3.org/2000/svg"
   xmlns="http://www.w3.org/2000/svg"
   xmlns:xlink="http://www.w3.org/1999/xlink"
   xmlns:sodipodi="http://sodipodi.sourceforge.net/DTD/sodipodi-0.dtd"
   xmlns:inkscape="http://www.inkscape.org/namespaces/inkscape"
   width="210mm"
   height="50mm"
   viewBox="0 0 744.09449 177.16535"
   id="svg2"
   version="1.1"
   inkscape:version="0.91 r13725"
   sodipodi:docname="logo.svg">
  <defs
     id="defs4">
    <linearGradient
       inkscape:collect="always"
       id="linearGradient5742">
      <stop
         style="stop-color:#72a738;stop-opacity:1;"
         offset="0"
         id="stop5744" />
      <stop
         style="stop-color:#72a738;stop-opacity:0;"
         offset="1"
         id="stop5746" />
    </linearGradient>
    <linearGradient
       id="linearGradient5736"
       inkscape:collect="always">
      <stop
         id="stop5738"
         offset="0"
         style="stop-color:#6ca035;stop-opacity:1" />
      <stop
         id="stop5740"
         offset="1"
         style="stop-color:#84c143;stop-opacity:0;" />
    </linearGradient>
    <linearGradient
       inkscape:collect="always"
       xlink:href="#linearGradient5736"
       id="linearGradient5710"
       x1="565.53564"
       y1="563.61224"
       x2="549.28564"
       y2="563.61224"
       gradientUnits="userSpaceOnUse"
       gradientTransform="matrix(1,0,0,1.0227273,5.4665528,368.16785)" />
    <linearGradient
       inkscape:collect="always"
       xlink:href="#linearGradient5742"
       id="linearGradient5748"
       x1="-600.51343"
       y1="606.69476"
       x2="-614.88574"
       y2="606.76422"
       gradientUnits="userSpaceOnUse"
       gradientTransform="matrix(1.0205881,0,0,1,-368.62854,4.7883805)" />
  </defs>
  <sodipodi:namedview
     id="base"
     pagecolor="#ffffff"
     bordercolor="#666666"
     borderopacity="1.0"
     inkscape:pageopacity="0.0"
     inkscape:pageshadow="2"
     inkscape:zoom="0.98994949"
     inkscape:cx="484.86897"
     inkscape:cy="211.46797"
     inkscape:document-units="px"
     inkscape:current-layer="layer1"
     showgrid="false"
     inkscape:window-width="1920"
     inkscape:window-height="1021"
     inkscape:window-x="-8"
     inkscape:window-y="-8"
     inkscape:window-maximized="1"
     units="mm"
     height="210mm"
     showguides="true"
     inkscape:guide-bbox="true">
    <sodipodi:guide
       position="-94.95434,1098.0358"
       orientation="0,1"
       id="guide4157" />
  </sodipodi:namedview>
  <metadata
     id="metadata7">
    <rdf:RDF>
      <cc:Work
         rdf:about="">
        <dc:format>image/svg+xml</dc:format>
        <dc:type
           rdf:resource="http://purl.org/dc/dcmitype/StillImage" />
        <dc:title></dc:title>
      </cc:Work>
    </rdf:RDF>
  </metadata>
  <g
     inkscape:groupmode="layer"
     id="layer2"
     inkscape:label="Ebene 2"
     transform="translate(0,-875.19681)" />
  <g
     inkscape:label="Ebene 1"
     inkscape:groupmode="layer"
     id="layer1"
     transform="translate(0,-875.19681)">
    <path
       style="fill:#2b2b2b;fill-opacity:1"
       d="m 49.661458,1034.4602 c -11.661332,-2.537 -18.942908,-10.0861 -21.197888,-21.9765 -0.409936,-2.1616 -0.726679,-16.04797 -0.726679,-31.85852 l 0,-28.02678 -6.85102,0 -6.851021,0 0,-8.65391 0,-8.65391 6.851021,0 6.85102,0 0,-11.53854 0,-11.53855 9.014501,0 9.014501,0 0,11.53855 0,11.53854 11.538561,0 11.538561,0 0,8.65391 0,8.65391 -11.56308,0 -11.563079,0 0.204808,27.70357 0.204809,27.70353 2.168276,3.126 c 3.382678,4.8768 7.51603,6.5624 17.055591,6.9555 l 7.819636,0.3221 0,8.5613 0,8.5613 -9.555371,-0.057 c -5.255454,-0.032 -11.534371,-0.4879 -13.953147,-1.0141 z m 35.957313,-32.2821 c 0.310005,-36.92746 0.328113,-37.09006 5.249187,-47.14017 3.215443,-6.56677 8.606357,-11.7534 15.644452,-15.05159 8.96221,-4.19988 13.28197,-4.69576 40.90664,-4.69576 l 24.54985,0 0,8.65391 0,8.65391 -21.31215,0 c -16.67783,0 -22.38348,0.24367 -26.23894,1.12058 -9.75167,2.21796 -16.30915,8.09238 -19.59349,17.55252 -1.60023,4.60928 -1.66321,5.73423 -1.93221,34.5124 l -0.27806,29.7478 -8.63764,0 -8.637644,0 0.280005,-33.3536 z m 120.996589,32.5562 c -8.72763,-1.4993 -15.85064,-6.4853 -19.30033,-13.51 -1.77843,-3.6215 -2.03369,-5.042 -2.26184,-12.5872 -0.44599,-14.74917 2.56887,-22.78411 9.75138,-25.9884 1.52103,-0.67857 18.27506,-4.75632 37.23117,-9.06167 18.95611,-4.30535 34.64409,-8.00634 34.86218,-8.22443 0.79703,-0.79703 -1.60007,-5.90477 -3.8162,-8.13156 -4.1357,-4.15559 -6.9828,-4.63264 -27.64831,-4.63264 -20.65819,0 -24.01208,0.52264 -27.92904,4.35219 -2.34781,2.29541 -4.10635,6.25529 -4.87273,10.97245 l -0.43937,2.70434 -8.7272,0 -8.7272,0 0.41984,-6.67072 c 0.90836,-14.43271 5.83534,-22.15921 16.99548,-26.65235 3.93465,-1.58411 4.95894,-1.64657 30.62263,-1.86725 28.01945,-0.24093 31.19683,0.0136 37.67859,3.01846 5.14162,2.38359 8.45965,5.54227 10.96609,10.43945 3.51304,6.86394 3.92353,11.3377 3.64832,39.76139 -0.23623,24.39774 -0.32233,25.78344 -1.8314,29.47924 -3.24258,7.9411 -7.84649,12.41 -15.87915,15.4134 -3.95276,1.4779 -5.4897,1.5641 -30.48496,1.7089 -14.47729,0.084 -28.09337,-0.1518 -30.25795,-0.5236 z m 49.77867,-17.666 c 4.73659,-1.3974 9.29512,-5.7513 10.60743,-10.1314 0.50811,-1.6959 0.88173,-7.11507 0.88173,-12.78897 0,-9.84143 -7.2e-4,-9.84582 -1.62261,-9.46956 -0.89244,0.20705 -14.44123,3.30669 -30.10843,6.8881 -15.66721,3.58146 -29.40556,6.87636 -30.52969,7.32206 -2.72428,1.0803 -3.59287,3.54087 -2.58607,7.32617 1.50483,5.6578 5.35896,9.3887 11.37179,11.0083 5.34969,1.441 36.97202,1.3245 41.98585,-0.1547 z m 65.57617,17.9888 c -3.55415,-0.6415 -9.06045,-2.663 -11.59884,-4.2583 -3.88348,-2.4406 -8.3436,-7.897 -10.19221,-12.4689 -1.61701,-3.9991 -1.64666,-4.5788 -1.64666,-32.19759 0,-24.94689 0.14473,-28.58119 1.28073,-32.16017 2.65993,-8.38016 7.27595,-13.32586 15.5621,-16.67354 3.98352,-1.60938 4.73195,-1.64932 34.90041,-1.8622 l 30.82959,-0.21755 0,-20.87775 0,-20.87775 8.6737,0 8.67371,0 -0.20008,60.39708 c -0.19997,60.36887 -0.20081,60.39887 -1.78834,64.27517 -3.25542,7.9487 -7.85399,12.411 -15.88391,15.4134 -3.95574,1.4791 -5.47081,1.5633 -30.48496,1.6949 -14.47729,0.076 -27.13365,-0.01 -28.12524,-0.1868 z m 47.64596,-17.9888 c 4.73659,-1.3974 9.29513,-5.7513 10.60743,-10.1314 0.62331,-2.0804 0.88173,-10.47457 0.88173,-28.64072 l 0,-25.69778 -25.47029,0 c -27.82582,0 -30.66017,0.33212 -34.65692,4.06093 -1.14061,1.06414 -2.75991,3.42533 -3.59845,5.24708 -1.40249,3.04694 -1.54476,4.80685 -1.77597,21.96912 -0.27179,20.17407 0.13077,23.63247 3.22353,27.69247 4.4094,5.7884 7.79483,6.5463 29.51472,6.6072 13.91902,0.039 18.13313,-0.1802 21.27422,-1.1069 z m 63.41269,17.9652 c -9.80195,-1.6408 -16.77865,-6.4529 -20.71168,-14.2856 -3.13774,-6.2488 -3.45035,-9.5095 -3.38783,-35.33675 0.0549,-22.68198 0.17452,-24.93913 1.59615,-30.12029 2.54581,-9.27827 7.11764,-14.44731 15.90848,-17.98655 3.93449,-1.58404 4.96441,-1.64687 30.75374,-1.87612 27.65854,-0.24586 31.96339,0.0645 38.24561,2.75737 3.93727,1.68771 9.39075,6.62991 11.17499,10.12732 2.06443,4.04662 3.07577,11.56307 2.71944,20.21145 -0.28319,6.87317 -0.57896,8.32242 -2.44189,11.96509 -3.7296,7.29265 -3.22947,7.10571 -43.46859,16.24731 -23.9789,5.44757 -35.72436,8.41717 -35.98571,9.09827 -0.85166,2.2194 3.70772,8.1006 8.12135,10.4759 2.75998,1.4853 3.77284,1.5524 23.4377,1.5524 20.49077,0 20.56388,-0.01 24.12202,-1.8029 5.06523,-2.5588 7.5247,-5.9639 8.52487,-11.8029 l 0.81943,-4.78377 8.50744,0 8.50744,0 0,5.01257 c 0,16.469 -7.33418,26.5472 -21.80127,29.9581 -3.56264,0.84 -9.64257,1.0474 -28.67993,0.9784 -13.28738,-0.048 -24.97017,-0.2233 -25.96176,-0.3893 z m 25.80276,-56.16913 c 17.76692,-4.0789 30.60392,-7.37301 31.34917,-8.04452 2.82236,-2.54311 0.67511,-10.28534 -3.98809,-14.37967 -4.0261,-3.53496 -7.64832,-3.993 -29.42439,-3.72081 l -19.16956,0.23961 -3.50749,2.16992 c -2.48917,1.53993 -4.04206,3.2087 -5.34881,5.74794 -1.68147,3.26742 -1.86388,4.50328 -2.10128,14.23646 -0.2317,9.49964 -0.13149,10.65843 0.92168,10.65843 0.6499,0 14.72086,-3.10831 31.26877,-6.90736 z m 177.56438,15.20066 0,-41.46663 -5.98563,0 c -3.69394,0 -6.31696,-0.33132 -6.85102,-0.86539 -0.56625,-0.56624 -0.8654,-3.55772 -0.8654,-8.65391 l 0,-7.78852 6.74739,0 6.74739,0 0.40114,-9.19478 c 0.64222,-14.72075 3.78156,-22.12237 11.62039,-27.39732 5.48334,-3.68988 9.57595,-4.61713 22.26055,-5.04352 l 11.35827,-0.38179 0,8.64687 0,8.64688 -7.88152,0.37357 c -11.38736,0.53973 -16.26526,3.29806 -18.70181,10.57539 -0.58536,1.74833 -0.82075,18.44958 -0.82075,58.23361 l 0,55.78221 -9.0145,0 -9.0145,0 0,-41.46667 z m 54.80816,0 0,-41.46663 -6.85102,0 -6.85102,0 0,-8.65391 0,-8.65391 6.74739,0 6.74739,0 0.40114,-9.19478 c 0.64221,-14.72075 3.78156,-22.12237 11.62039,-27.39732 5.48334,-3.68988 9.57594,-4.61713 22.26054,-5.04352 l 11.35828,-0.38179 0,8.64687 0,8.64688 -7.88153,0.37357 c -11.38735,0.53973 -16.26526,3.29806 -18.7018,10.57539 -0.58536,1.74833 -0.82076,18.44958 -0.82076,58.23361 l 0,55.78221 -9.0145,0 -9.0145,0 0,-41.46667 z"
       id="path4169"
       inkscape:connector-curvature="0" />
    <path
       style="fill:#000000"
       d=""
       id="path4171"
       inkscape:connector-curvature="0" />
    <path
       style="opacity:1;fill:#a4d174;fill-opacity:1;fill-rule:nonzero;stroke:none;stroke-width:1;stroke-miterlimit:4;stroke-dasharray:none;stroke-dashoffset:0;stroke-opacity:1"
       d="m 557.34583,1035.185 c -11.92903,-0.1314 -11.95964,-0.1343 -16.05465,-1.5051 -4.48506,-1.5013 -8.74757,-4.2864 -11.47453,-7.4975 -3.32455,-3.9146 -5.71831,-9.2259 -6.57086,-14.5793 l -0.46073,-2.8932 0.11387,-22.51224 c 0.14115,-27.90629 0.0774,-27.08271 2.58565,-33.3616 1.31951,-3.303 2.50638,-5.23154 5.07538,-8.24689 l 2.10372,-2.46924 3.70684,-1.98873 3.70685,-1.98874 3.25478,-0.73435 c 1.79014,-0.40388 3.82438,-0.77826 4.52055,-0.83195 0.69616,-0.0537 6.32076,-0.19435 12.49909,-0.31259 l 11.23335,-0.21499 1.09742,0.96599 c 0.89443,0.78732 1.06589,1.02493 0.92692,1.2846 -0.0938,0.17523 -0.1707,1.32074 -0.17091,2.54556 -1.8e-4,1.22482 -0.054,4.24085 -0.11936,6.70229 l -0.11897,4.47534 -8.9248,0 c -8.83288,0 -8.94664,0.005 -11.04637,0.45195 -1.3576,0.28921 -2.92822,0.79385 -4.3616,1.40137 l -2.24,0.94941 -1.55725,1.73122 c -2.35058,2.6132 -3.06062,3.61526 -3.66279,5.16924 -1.15811,2.98861 -1.17511,3.27569 -1.43127,24.18038 l -0.23242,18.96577 0.68066,2.0999 c 0.88711,2.7369 2.67277,5.7965 4.29589,7.3608 1.82905,1.7628 4.15796,3.1017 6.63843,3.8166 3.5173,1.0136 5.21081,1.1007 22.44189,1.1544 17.19411,0.054 17.23448,0.051 21.4333,-1.2766 2.90326,-0.918 5.01925,-2.1586 6.10138,-3.5772 1.60611,-2.1054 2.37363,-3.4048 3.14591,-5.3261 1.35562,-3.3726 1.32484,-2.9783 1.32484,-16.97055 l 0,-12.46488 8.2173,0 8.2173,0 0.49489,0.42568 0.49489,0.42569 -0.19909,15.80309 -0.1991,15.80297 -0.81155,2.622 c -1.72512,5.5733 -2.92418,8.1088 -5.13084,10.8493 -2.43597,3.0252 -6.32364,5.8958 -10.20489,7.535 -2.04548,0.8639 -2.74377,1.0569 -5.80612,1.6051 l -3.481,0.6231 -14.73696,-0.039 c -8.10534,-0.022 -19.4971,-0.092 -25.31504,-0.1558 z"
       id="path4203"
       inkscape:connector-curvature="0" />
    <rect
       style="opacity:1;fill:url(#linearGradient5748);fill-opacity:1;fill-rule:nonzero;stroke:none;stroke-width:1;stroke-miterlimit:4;stroke-dasharray:none;stroke-dashoffset:0;stroke-opacity:1"
       id="rect4233-4"
       width="17.678049"
       height="17.31855"
       x="-999.16241"
       y="604.05542"
       transform="matrix(-0.00175662,-0.99999846,0.99999887,-0.00150642,0,0)" />
    <path
       style="opacity:1;fill:#a4d174;fill-opacity:1;fill-rule:nonzero;stroke:none;stroke-width:1;stroke-miterlimit:4;stroke-dasharray:none;stroke-dashoffset:0;stroke-opacity:1"
       d="m 601.29569,980.29648 c -4.09903,-0.31497 -4.21307,-0.33691 -8.13232,-1.5648 -2.20895,-0.69207 -4.1491,-1.47321 -6.04537,-2.434 l -2.79245,-1.41486 -2.92467,-3.21617 c -1.60858,-1.76889 -3.56462,-4.11905 -4.34678,-5.2226 -2.46117,-3.47254 -4.22913,-7.36353 -5.14331,-11.31969 l -0.617,-2.67007 0.21967,-8.13069 c 0.12083,-4.47187 0.2389,-8.14991 0.2624,-8.17341 0.0887,-0.0888 51.37544,44.20489 51.37544,44.37009 0,0.19549 -18.92042,0.002 -21.85561,-0.2238 z"
       id="path4205"
       inkscape:connector-curvature="0" />
    <rect
       style="opacity:1;fill:url(#linearGradient5710);fill-opacity:1;fill-rule:nonzero;stroke:none;stroke-width:1;stroke-miterlimit:4;stroke-dasharray:none;stroke-dashoffset:0;stroke-opacity:1"
       id="rect4233"
       width="17.321428"
       height="16.071428"
       x="554.03784"
       y="936.00598" />
    <path
       style="fill:none;fill-rule:evenodd;stroke:none;stroke-width:1px;stroke-linecap:butt;stroke-linejoin:miter;stroke-opacity:1"
       d="m 565.01447,952.01122 5.93464,0 1.51523,5.42957 1.76777,4.29315 1.89403,3.40927 2.27285,2.90418 2.0203,2.52539 4.04061,4.54568 4.67196,2.14658 5.55584,2.0203 4.04061,0.88389 6.9448,0.3788 0.12626,6.06092 0,4.79822 -6.18718,0.50508 -2.65165,0 -3.91434,0 -3.15673,0.12627 -4.04061,0 -2.52538,-0.50508 -5.55584,-1.26269 -3.03046,-1.89404 c 0,0 -2.27284,-1.76776 -2.77792,-2.14657 -0.50507,-0.37881 -3.53553,-3.28299 -3.53553,-3.28299 l -1.89404,-3.53554 -1.13642,-4.41942 -0.50507,-3.15672 -1.13643,-5.80838 0,-2.52538 0,-3.6618 -0.25253,-3.15673 0,-2.02031 z"
       id="path5822"
       inkscape:connector-curvature="0" />
  </g>
</svg>
