<?xml version="1.0" encoding="UTF-8" standalone="no"?>
<!-- Created with Inkscape (http://www.inkscape.org/) -->

<svg
   xmlns:dc="http://purl.org/dc/elements/1.1/"
   xmlns:cc="http://creativecommons.org/ns#"
   xmlns:rdf="http://www.w3.org/1999/02/22-rdf-syntax-ns#"
   xmlns:svg="http://www.w3.org/2000/svg"
   xmlns="http://www.w3.org/2000/svg"
   xmlns:sodipodi="http://sodipodi.sourceforge.net/DTD/sodipodi-0.dtd"
   xmlns:inkscape="http://www.inkscape.org/namespaces/inkscape"
   width="40"
   height="40"
   viewBox="0 0 40 40.000001"
   id="svg2"
   version="1.1"
   inkscape:version="0.91 r13725"
   sodipodi:docname="scrolltop.svg">
  <defs
     id="defs4" />
  <sodipodi:namedview
     id="base"
     pagecolor="#ffffff"
     bordercolor="#666666"
     borderopacity="1.0"
     inkscape:pageopacity="0.0"
     inkscape:pageshadow="2"
     inkscape:zoom="15.839192"
     inkscape:cx="18.059782"
     inkscape:cy="17.687529"
     inkscape:document-units="px"
     inkscape:current-layer="g4182"
     showgrid="false"
     inkscape:showpageshadow="false"
     units="px"
     inkscape:window-width="1920"
     inkscape:window-height="1018"
     inkscape:window-x="-8"
     inkscape:window-y="-8"
     inkscape:window-maximized="1" />
  <metadata
     id="metadata7">
    <rdf:RDF>
      <cc:Work
         rdf:about="">
        <dc:format>image/svg+xml</dc:format>
        <dc:type
           rdf:resource="http://purl.org/dc/dcmitype/StillImage" />
        <dc:title></dc:title>
      </cc:Work>
    </rdf:RDF>
  </metadata>
  <g
     inkscape:label="Ebene 1"
     inkscape:groupmode="layer"
     id="layer1"
     transform="translate(0,-1012.3622)">
    <g
       id="g4182">
      <path
         style="fill:#1a1a1a"
         d="m 17.907454,1052.084 c -4.545253,-0.507 -8.5083415,-2.4154 -11.7887044,-5.6768 -3.7929126,-3.7709 -5.85761051,-8.7447 -5.85761051,-14.1108 0,-5.2656 1.97881461,-10.1344 5.66554801,-13.9401 2.9086407,-3.0025 6.5901449,-4.9431 10.7972149,-5.6915 0.968725,-0.1723 1.453086,-0.2025 3.243783,-0.2025 1.790693,0 2.275057,0.03 3.243783,0.2025 4.25215,0.7565 7.927974,2.7096 10.892635,5.788 2.869606,2.9798 4.666132,6.6138 5.360319,10.8428 0.227514,1.3861 0.227514,4.6154 0,6.0016 -0.352088,2.1449 -0.912778,3.9101 -1.849422,5.8223 -3.020597,6.1669 -8.833485,10.2242 -15.721449,10.9734 -0.944285,0.1028 -3.026595,0.098 -3.986097,-0.01 z m -7.162044,-11.3672 c 0.17462,-0.048 0.44367,-0.2196 0.597896,-0.3801 0.154228,-0.1607 2.139591,-2.6501 4.411921,-5.5322 2.272329,-2.8821 4.168185,-5.2401 4.213009,-5.2401 0.04483,0 1.940107,2.358 4.21174,5.2401 2.271632,2.8821 4.25712,5.3719 4.412193,5.5331 0.371559,0.3858 0.833632,0.5111 1.296768,0.3516 0.420862,-0.145 2.206899,-1.6685 2.404905,-2.0514 0.171197,-0.3311 0.181282,-0.96 0.02028,-1.2654 -0.206291,-0.3914 -9.679751,-12.3541 -10.14912,-12.8159 -1.236757,-1.2172 -3.212502,-1.2026 -4.43702,0.033 -0.455842,0.4599 -9.922021,12.4329 -10.1067563,12.7832 -0.1609923,0.3055 -0.1509047,0.9344 0.02031,1.2655 0.1882425,0.364 1.9751439,1.9023 2.3762933,2.0458 0.395127,0.1413 0.346773,0.139 0.72759,0.033 z"
         id="path4200"
         inkscape:connector-curvature="0" />
    </g>
  </g>
</svg>
